mattnkm - why don’t Bruneians run their own businesses?
…
show code

# read as age_group object
age_group <- read_xlsx("BN_age_group_nationality.xlsx")

# get first two characters from column
age_group <- age_group %>%
  mutate(lower_age = substr(age_group, 1, 2)) %>% 
  # reposition to second column
  relocate(lower_age, .before = age_group)

# final dataset
age_group

# A tibble: 72 × 5
   lower_age age_group type   male female
   <chr>     <chr>     <chr> <dbl>  <dbl>
 1 00        00-04     total 14258  13097
 2 05        05-09     total 16658  15276
 3 10        10-14     total 16051  15036
 4 15        15-19     total 17365  16425
 5 20        20-24     total 19870  17229
 6 25        25-29     total 22698  18408
 7 30        30-34     total 22630  17904
 8 35        35-39     total 21289  17136
 9 40        40-44     total 19231  16232
10 45        45-49     total 16463  15079
# ℹ 62 more rows
…
